0.00997438
0.00322763
0
0.00307735
0.00429165
0
0.00308896
0.00575937
0.00484976
0.00199049
0.0090903
0.00505574
0.00301944
0
0.00168951
0.00692007
0
0.00287714
0.00400176
0.00311638
0.00865108
0.00276844
0
0.00287254
0.00413414
0.0112371
0.00652521
0.0092204
0.00631204
0.00592739
